{
	"info": {
		"_postman_id": "85b6476d-efb9-4ba3-a964-e583fad12da2",
		"name": "Petshop",
		"schema": "https://schema.getpostman.com/json/collection/v2.1.0/collection.json"
	},
	"item": [
		{
			"name": "GET all pets",
			"request": {
				"auth": {
					"type": "basic",
					"basic": [
						{
							"key": "password",
							"value": "123",
							"type": "string"
						},
						{
							"key": "username",
							"value": "alans",
							"type": "string"
						}
					]
				},
				"method": "GET",
				"header": [],
				"url": {
					"raw": "{{host}}/api/v1/pets",
					"host": [
						"{{host}}"
					],
					"path": [
						"api",
						"v1",
						"pets"
					]
				}
			},
			"response": []
		}
	]
}